/* XPM */
static char * mnOrangeNasen1_xpm[] = {
"64 64 4 1",
" 	c None",
".	c #000000",
"+	c #FFCC00",
"@	c #FF6600",
"                                                                ",
"     ......          ......          .....           ......     ",
"   ..++++@@.       ..+++++@.        .+++++..        .++++@@.    ",
"  .+++@@@@@@.     .@++@@@@@@.      .+++@@@@@.      .++@@@@@@.   ",
"  .+@@@@@@@@@.    .+@@@@@.@@@..   .+@@@@@@@@@.   ..+@@.@@@@@@.  ",
" .@@@@.@.@@@@@.  .@@@@@.@@@@@@@...+@@.@@.@@@@@...++@@@@@.@@@@@. ",
" .@@@@@@@@@@@@.  .@@@@@@@@.@@@@+++@@@@@@@@@@@@@++@@@@.+@@@@@@@. ",
" .@@@@@@@@@@@@.  .@@@@@@@@+.@@@@@@@@@@@@.@@@@@@@@@@@.+@@@@@@@@. ",
" .@@@@.+@.@@@@.  .@@@@@@.@@+.@@@@@@@@.+@@.@@@@@@@@@.+@@.@@@@@@. ",
" .@@@@.+@.@@@@.  .@@@@@@@.@@.@@@@@@@@.+@@.@@@@@@@@@.@@.@@@@@@@. ",
" .@@@@.@@.@@@@.  .@@@@@@@@..@@@@@@@@@.+@@.@@@@@@@@@@..@@@@@@@.  ",
"  .@@@.@@.@@@.    .@@@@@@@@@@.....@@@.@@.@@@@....@@@@@@@@@@@@.  ",
"   .@@@..@@@.      .@@@@@@@@.     ..@@..@@@..    ...@@@@@@@@.   ",
"    .@@@@@@.        ..@@@@@.        .@@@@@.         .@@@@@@.    ",
"     ......           .....          .....           ......     ",
"                                                                ",
"                                                                ",
"    .......          ......          ......          .......    ",
"   .++++++@..       .++++@@.        .+++@@@.        .++++@@@.   ",
"  .++@@@@@@@@.     .++@@@@@@.      .++@@@@@@.      .++@@@@@@@.  ",
" .+@@@@@@@@@@@.   .+@@@@@.@@@.    .+@@@@@@@@@.    .+@@@@.@@@@@. ",
" .@@@@@@@@@@@@.  .@@@@@.@@@@@@....+@@.@@.@@@@@....+@@@@@@@.@@@. ",
" .@@@@@@@@@@@@.  .@@@@@@@@..@@@+++@@@@@@@@@@@@@@@@@@@@@..@@@@@. ",
" .@@@@.@.@@@@@.  .@@@@@@@@@+.@@@@@@@@.+@.@@@@@@@@@@@@@.++@@@@@. ",
" .@@@@@@@@@@@@.  .@@@@@@..@@.@@@@@@@.+@@@.@@@@@@@@@@@.+@@@.@@@. ",
" .@@@.++@@.@@@.  .@@@@@@@@..@@@@@@@@.@@@@.@@@@@@@@@...@@..@@@@. ",
" .@@@.+@@@.@@@.  .@@@@@@@@@@@@@@@@@@@....@@@@@@@@..   ...@@@@@. ",
"  .@@.+@@.@@@.    .@@@@@@@@@@@....@@@@@@@@@@@....       .@@@@@. ",
"   .@.@@@.@@.      .@@@@@@@@..    ..@@@@@@@@.          .@@@@@.  ",
"   .@@...@@.        .@@@@@@.        .@@@@@@.           .@@@@.   ",
"    .@@@@@@.        .@@@@@.          .@@@@.           .@@@@.    ",
"     .@@@@.          .@@@@.          .@@@@.          .@@@@@.    ",
"    .@@@@@@.         .@@@@.         .@@@@@@.         .+@@@.     ",
"    .+@@@@@.        .+@@@@@.        .+@@@@@@.        .+@@@@.    ",
"   .++@@@@@@.      .+@@@@@@.       .+@@@@@@@.       .+@@@@@.    ",
"   .+@@@@@@@.     .+@@@@@@@@.     .+@@@@@@@@@..    .+@@@@@@@.   ",
"  .@@@@@@@@@.     .@@@@@@@@@@.  ..+@@@@@@@@@@@@....+@@@@@@@@@.  ",
"  .@@@.@.@@@@.   .@@@@@.@@@@@@..++@@@@@@@.@@@@@@@@+@@@@@@.@@@@. ",
"  .@@@@@@@@@@.   .@@@@@@@@..@@@+@@@@@@.@@@@@@@@@@@@@@@@@@@@.@@. ",
"  .@@@@@@@@@@.   .@@@@.@@+@@.@@@@@@@@@@@@@.@@@@@@@@@@@@..+@@@@. ",
"  .@@@.+@.@@@.   .@@@@@@+@@@.@@@@@@@@@@.+@.@@@@@@@@@@@.++@@@@@. ",
"  .@@@.+@.@@@.    .@@@@@.@@@.@@@@@@@@@.+@@.@@@@@@@@@@@.@@@..@@. ",
"  .@@@.@@.@@@.     .@@@@@...@@@@@@@@@@.@@@.@@@@@@@@@@@.@@.@@@@. ",
"   .@@.@@.@@@.     .@@@@@@@@@....@@@@@.@@@.@@@@....@@@@..@@@@@. ",
"   .@@@..@@@.       .@@@@@@@.    ..@@@@...@@@..    .@@@@@@@@@.  ",
"    .@@@@@@@.       .@@@@@@.       .@@@@@@@@.       .@@@@@@@.   ",
"    .@@@@@@.         .@@@@@.        .@@@@@@.         .@@@@@@.   ",
"    .@@@@@@.         .@@@@.         .@@@@@@.         .@@@@@.    ",
"     .@@@@.          .@@@@.          .@@@@.          .@@@@@.    ",
"     .+@@@.          .@@@@@.        .+@@@@@.         .+@@@.     ",
"    .+@@@@@.        .+@@@@@.        .+@@@@@.        .+@@@@@.    ",
"    .+@@@@@.        .+@@@@@@.      .+@@@@@@@.       .+@@@@@@.   ",
"   .+@@@@@@@.      .++@@@@@@@..   .+@@@@@@@@@..   ..+@@@@@@@.   ",
"  .+@@@@.@.@@.     .+@@@@@@@@@@...+@@@@@@@@@@@@...++@@@@.@@@@.  ",
"  .@@@@@@@@@@.    .@@@@@@@@@@@@++@@@@@.@.@@@@@@@++@@@@@@@@.@@.  ",
" .@@@@@@@@@@@@.   .@@.@@@@@@@@@@@@@@@@@@@@@@@@@@@@@@@@.+@@@@@.  ",
" .@@@@@.+@.@@@.   .@@@@.@@@@@@@@@@@@.++@@.@@@@@@@@@@@.+@@.@@@.  ",
" .@@@@@.+@.@@@.   ...@@@@@@@@@@@@@@@.++@@.@@@@@@@@@@@.@@.@@@@.  ",
" .@@@@.@@@.@@.   .++@@@@@@@@@@@@@@@@.+@@@.@@@@@@@@@@@@..@@@@.   ",
"  .@@@.@@.@@@.  .+@@@.@@@@@@@@..@@@@.@@@@.@@@@@..@@@@@@@@@@@.   ",
"  .@@@@..@@@.   .@@..@@@@@@@..  ..@@@.@@@.@@@..  ..@@@@@@@@.    ",
"   ..@@@@@@.     ..  .@@@@@.      .@@@...@@..      ..@@@@..     ",
"     ......           .....        .@@@@@@.          ....       ",
"                                    ......                      "};
