%!PS-Adobe-2.0
%%Pages: 1
%%BoundingBox: 0 0 128 64
%%EndComments
%%Page: 1 1

% /l 1 def
% 
% /geh {
%   0 0 moveto l 0 lineto stroke l 0 translate
% } def
% 
% 
% /dragon {
%   10 dict begin
%     /r exch def
%     /t exch def
%     t 0 eq { geh } {
%       /t t 1 sub def
%       45 r mul rotate
%       t 1 dragon
%       -90 r mul rotate
%       t -1 dragon
%       45 r mul rotate
%     } ifelse
%   end
% } def


/dragon { % tiefe groesse
  10 dict begin
    2 sqrt div /g exch def
    1 sub /t exch def
    t 0 eq {
      gsave
      %.7 setgray
      -45 rotate
      0 0 g g rectfill
      grestore
      %0 0 moveto g 2 sqrt mul 0 lineto stroke
    } {
      gsave
      45 rotate
      t g dragon
      g g neg translate
      90 rotate
      t g dragon
      grestore
    } ifelse 
  end
} def


/frames 4 def


/dx 100 def
/g1 65 def
/g2 g1 2 sqrt div def




/interpol { % x1 x2 t
  dup 3 -1 roll mul 3 1 roll 1 exch sub mul add
} def


/anim { % x1 y1 r1 x2 y2 r2
  /r2 exch def /y2 exch def dx frames mul add /x2 exch def
  /r1 exch def /y1 exch def /x1 exch def
  0 1 frames {
    frames div /t exch def
    gsave x1 x2 t interpol y1 y2 t interpol translate
    r1 r2 t interpol rotate
    12 g1 g2 t interpol dragon
    grestore
  } for
} def

/gitter {
  gsave
  .7 setgray
  0 0 moveto dx frames 1 add mul 0 lineto stroke
  0 dx moveto dx frames 1 add mul dx lineto stroke
  0 dx 2 mul moveto dx frames 1 add mul dx 2 mul lineto stroke
  0 1 frames 1 add {
    dx mul 0 moveto 0 dx 2 mul rlineto stroke
  } for
  grestore
} def



32 dx div dup scale

%50 200 translate
%15 1 dragon

%gitter
60 23 translate

1 setlinewidth
%8 100 dragon
0 0 90 0 0 135 anim
0 dx 90 0 g1 225 anim



showpage

%%EOF